{
	"exam_type":"Cambridge",
	"level":"B2",
	"audio":"listeningb201",
	"series":"01",
	"title_first_part":"You will hear people talking in eight different situation. For question 1-8, choose the best answer (A, B or C).",
	"first_part":[

		{
			"question": "1) you hear a restaurant manager talking about the cooks who work form him. What does he say about them?",
			"choose1" : "They dislike cleaning tasks",
			"choose2" : "They have a choice of jobs",
			"choose3" : "They help to decide the menu",
			"answer" : "They have a choice of jobs"
		},
		{
			"question": "2) You hear a woman talking about a new book. What does she particularly like about the book?",
			"choose1" : "it is educational",
			"choose2" : "it is well organised",
			"choose3" : "it is enjoyable",
			"answer" : "it is enjoyable"
		},
		{
			"question": "3) You hear the writer of a television soap opera being interviewed about the programme. What will happen next in the story?",
			"choose1" : "Someone will make an important decision",
			"choose2" : "Someone will go away unexpectedly",
			"choose3" : "Someone will learn the truth at last",
			"answer" : "Someone will learn the truth at last"
		},
		{
			"question": "4) You hear part of a radio interview. who is speaking",
			"choose1" : "a taxi driver",
			"choose2" : "a porter",
			"choose3" : "a tourist guide",
			"answer" : "a porter"
		},
		{
			"question": "5) You hear a woman talking about how she keeps fit. Why did she decide to take up line dancing?",
			"choose1" : "She thought the pace would suit her",
			"choose2" : "She had heard about it on television",
			"choose3" : "She wanted to try exercising to music",
			"answer" : "She thought the pace would suit her"
		},
		{
			"question": "6) You overhear a conversation in a restaurant. What does the woman think about the food she has just eaten?",
			"choose1" : "it was expensive",
			"choose2" : "it was delicius",
			"choose3" : "it looked wonderful",
			"answer" : "it was delicius"
		},
		{
			"question": "7) you turn on the radio and hear a man talking. What is he talking about?",
			"choose1" : "drawing pictures",
			"choose2" : "writing fiction",
			"choose3" : "composing music",
			"answer" : "composing music"
		},
		{
			"question": "8) You overhear a student phoning her parents. What is her opinion of the place she is living in while at college?",
			"choose1" : "She is not sure she will have enough room to study",
			"choose2" : "She has difficulty in working because of the noise",
			"choose3" : "She does not get on well with her room-mates",
			"answer" : "She is not sure she will have enough room to study"
		}

	],
	"title_second_part":"You will hear an interview with Elizabeth Holmes about her experience working in Africa. For question 9-18, complete the sentences.",
	"second_part":[

		{
			"question1": "Elizabeth worked for a _ _ _ 9 _ _ _ before she went to Africa",
			"answer" : "travel agency"
			
		},
		{
			"question1": "Elizabeth first found out about working as a volunteer from a _ _ _ 10 _ _ _ she saw at the dintist's",
			"answer" : "poster"
			
		},
		{
			"question1": "The course in London that Elizabeth attended was colled _ _ _ 11 _ _ _",
			"answer" : "changes"
			
		},
		{
			"question1": "Elizabeth's job in Africa was to teach _ _ _ 12 _ _ _ how to market their goods",
			"answer" : "local African"
			
		},
		{
			"question1": "On arrival in Africa, Elizabeth spent _ _ _ 13 _ _ _ doing a trainig course with other volunteers",
			"answer" : "3 weeks"
			
		},
		{
			"question1": "Elizabeth used a _ _ _ 14 _ _ _ to travel short distances in Africa",
			"answer" : "motorbike"
			
		},
		{
			"question1": "Elizabeth feels that she got on best with _ _ _ 15 _ _ _ in the area of Africa where she lived",
			"answer" : "women"
			
		},
		{
			"question1": "Back in England, Elizabeth found that she was disturbed by the _ _ _ 16 _ _ _ in the city",
			"answer" : "traffic"
			
		},
		{
			"question1": "At the moment, Elizabeth buys and sells _ _ _ 17 _ _ _ from Africa",
			"answer" : "furniture"
			
		},
		{
			"question1": "Nowadays, Elizabeth spends more time on her favourite pastime, whic is _ _ _ 18 _ _ _",
			"answer" : "gardening"
			
		}

	],
	"title_third_part":"You will hear five different employees talking about what makes a good boss. For question 19-23 choose which opinion (A-F) each speaker express.\n\nA GOOD BOSS SHOULD:",
	"third_part":[

		{
			"question": "A: allow staff to take decision ",
			"answer" : "E"
		},
		{
			"question": "B: encourage staff to work in teams ",
			"answer" : "A"
		},
		{
			"question": "C: listen to complaints from staff",
			"answer" : "D"
		},
		{
			"question": "D: give information on individual progress",
			"answer" : "B"
		},
		{
			"question": "E: have good qualifications",
			"answer" : "F"
		},
		{
			"question": "F: set an example of hard work",
			"answer" : " "
		},
		{
			"question": "G: none",
			"answer" : " "
		}

	],
	"title_fourth_part":"You will hear an interview with Trina Trevose, a pop singer who is only fifteen. For question 24-30, choose the best answer (A, B or C).",
	"fourth_part":[

		{
			"question": "24) When Trina went to the USA, she:",
			"choose1" : "thought the recors she made would be unsuccessful",
			"choose2" : "knew her friend would be jealous of her",
			"choose3" : "didn't tell many people why she was going",
			"answer" : "didn't tell many people why she was going"
		},
		{ 
			"question": "25) When Trina was in the USA, she wrote songs about",
			"choose1" : "her home",
			"choose2" : "the weather",
			"choose3" : "people she met",
			"answer" : "people she met"
		},
		{
			"question": "26) Where was Trina performing when she was noticed by the record company?",
			"choose1" : "in London",
			"choose2" : "near her home",
			"choose3" : "in the USA",
			"answer" : "near her home"
		},
		{
			"question": "27) Why did Trina sing with Devid Pearson?",
			"choose1" : "he needed some help",
			"choose2" : "She wrote a song for him",
			"choose3" : "The record company asked her to",
			"answer" : "he needed some help"
		},
		{
			"question": "28) Trina was asked to return to the USA to",
			"choose1" : "re-do some work",
			"choose2" : "appear on TV again",
			"choose3" : "record a new song",
			"answer" : "re-do some work"
		},
		{
			"question": "29) Why isn't Trina popular in Britain?",
			"choose1" : "Her kind of music isn't popular in Britain",
			"choose2" : "The company don't want to sell her records in Britain",
			"choose3" : "Her records haven't been available in Britain",
			"answer" : "Her records haven't been available in Britain"
		},
		{
			"question": "30) How does Trina see her future?",
			"choose1" : "She will continue making records in the USA",
			"choose2" : "She may make singing her career eventually",
			"choose3" : "She wants to study music at college",
			"answer" : "She may make singing her career eventually"
		}

	]

}